…
``` r
if (kolada_available()) {
kpi_grp_df <- get_kpi_groups()

# Which KPI groups match the keyword "ekonomi" (economy)?
kpi_grp_df |> kpi_grp_search("ekonomi")

# Which KPI groups contain KPIs matching the keyword "arbete" (work/labour)?
kpi_grp_df |>
  kpi_grp_unnest() |>
  kpi_search("arbete") |>
  dplyr::count(group_title, sort = TRUE)
}
#> # A tibble: 29 × 2
#>    group_title                                 n
#>    <chr>                                   <int>
#>  1 Medborgarundersökningen - Kommun            8
#>  2 Elevenkät gymnasieelever år 2               7
#>  3 Elevenkät årskurs 5                         7
#>  4 Elevenkät årskurs 8                         7
#>  5 Enhet elevenkät årskurs 5                   7
#>  6 Enhet elevenkät årskurs 8                   7
#>  7 Enhet, elevenkät gymnasieelever år 2        7
#>  8 Pedagogisk personal enkät - grundskola      7
#>  9 Pedagogisk personal enkät gymnasieskola     7
#> 10 Personal - Region                           6
#> # ℹ 19 more rows
```
