Introduction to rKolada • rKolada
…
KPI metadata is considerably more complex than other types of
metadata. To further assist in exploring KPI metadata the function
kpi_bind_keywords() can be used to tag data with keywords
(these are inferred from the KPI title) to classify KPIs and make them
more searchable.

# Add keywords to a KPI table
kpis_with_keywords <- kpi_filter |> kpi_bind_keywords(n = 4)

# count keywords
kpis_with_keywords |>
  tidyr::pivot_longer(dplyr::starts_with("keyword"), values_to = "keyword") |>
  dplyr::count(keyword, sort = TRUE)
#> # A tibble: 358 × 2
#>    keyword            n
#>    <chr>          <int>
#>  1 grundskola       147
#>  2 elever           143
#>  3 pedagogisk       109
#>  4 gymnasieskola    103
#>  5 gymnasieelever    98
#>  6 förskola          91
#>  7 åk                89
#>  8 personal          87
#>  9 kommunal          72
#> 10 år                68
#> # ℹ 348 more rows
…
