…
All metadata convenience functions have been designed with piping in
mind, so their first argument is always a metadata tibble. Most of them
also return a tibble of the same type.

The most important family of metadata convenience functions is the
`search` family. Much like
[`dplyr::filter()`](https://dplyr.tidyverse.org/reference/filter.html)
they can be used to search for one or several search terms in the entire
table or in a subset of named columns:

``` r
# Search for KPIs with the term "skola" in their description or title
kpi_filter <- kpi_df |> kpi_search("skola", column = c("description", "title"))
kpi_filter
#> # A tibble: 846 × 12
#>    id     title       description is_divided_by_gender municipality_type auspice
#>    <chr>  <chr>       <chr>       <lgl>                <chr>             <chr>  
#>  1 N00022 Kostnadsut… "Kostnadsu… FALSE                K                 NA     
#>  2 N00023 Kostnadsut… "Kostnadsu… FALSE                K                 NA     
#>  3 N00026 Kostnadsut… "Kostnadsu… FALSE                K                 NA     
#>  4 N00097 Nettokostn… "Avvikelse… FALSE                K                 T      
#>  5 N00100 Strukturko… "Strukturk… FALSE                K                 T      
#>  6 N00108 Månadsavlö… "Antal ans… FALSE                K                 E      
#>  7 N00114 Årsarbetar… "Antal års… FALSE                K                 E      
#>  8 N00303 Tillgängli… "Kommunind… FALSE                K                 T      
#>  9 N00314 Tillgängli… "Kvinnors … FALSE                K                 T      
#> 10 N00325 Tillgängli… "Mäns Komm… FALSE                K                 T      
#> # ℹ 836 more rows
#> # ℹ 6 more variables: operating_area <chr>, perspective <chr>,
#> #   prel_publication_date <chr>, publication_date <chr>, publ_period <chr>,
#> #   has_ou_data <lgl>
```

    #> # A tibble: 3,630 × 3
    #>    id      title                                                 members      
    #>    <chr>   <chr>                                                 <list>       
    #>  1 G114418 Fyrkommunsnätverket (ovägt medel)                     <df [4 × 2]> 
    #>  2 G114419 SMS - Samhällsskydd mellersta Skaraborg (ovägt medel) <df [4 × 2]> 
    #>  3 G114798 4M -  Fyra Mälarstäder (ovägt medel)                  <df [4 × 2]> 
    #>  4 G114915 SmåKom (ovägt medel)                                  <df [68 × 2]>
    #>  5 G116237 Sjuhärad kommunalförbund (ovägt medel)                <df [9 × 2]> 
    #>  6 G116238 Skaraborgs kommunalförbund (ovägt medel)              <df [15 × 2]>
    #>  7 G122469 Region 10 (ovägt medel)                               <df [10 × 2]>
    #>  8 G122931 3KVH (ovägt medel)                                    <df [5 × 2]> 
    #>  9 G128518 Familjen Helsingborg (ovägt medel)                    <df [11 × 2]>
    #> 10 G128681 Stor-Malmö (ovägt medel)                              <df [12 × 2]>
    #> # ℹ 3,620 more rows
…
KPI metadata is considerably more complex than other types of metadata.
To further assist in exploring KPI metadata the function
[`kpi_bind_keywords()`](https://lchansson.github.io/rKolada/reference/kpi_bind_keywords.md)
can be used to tag data with keywords (these are inferred from the KPI
title) to classify KPIs and make them more searchable.

``` r
# Add keywords to a KPI table
kpis_with_keywords <- kpi_filter |> kpi_bind_keywords(n = 4)

# count keywords
kpis_with_keywords |>
  tidyr::pivot_longer(dplyr::starts_with("keyword"), values_to = "keyword") |>
  dplyr::count(keyword, sort = TRUE)
#> # A tibble: 383 × 2
#>    keyword            n
#>    <chr>          <int>
#>  1 elever           160
#>  2 grundskola       150
#>  3 pedagogisk       113
#>  4 gymnasieelever   106
#>  5 gymnasieskola    103
#>  6 förskola          91
#>  7 personal          91
#>  8 åk                91
#>  9 kommunal          71
#> 10 år                69
#> # ℹ 373 more rows
```
…
